<?xml version="1.0" encoding="UTF-8"?>
<svg xmlns="http://www.w3.org/2000/svg" xmlns:xlink="http://www.w3.org/1999/xlink" width="50pt" height="50pt" viewBox="0 0 50 50" version="1.1">
<g id="surface15908928">
<path style=" stroke:none;fill-rule:nonzero;fill-opacity:1;" d="M 45.832031 25 C 45.832031 25.410156 45.820312 25.820312 45.796875 26.226562 C 44.507812 25.660156 43.121094 25.273438 41.667969 25.101562 C 41.667969 25.066406 41.667969 25.035156 41.667969 25 C 41.667969 15.808594 34.191406 8.332031 25 8.332031 C 15.808594 8.332031 8.332031 15.808594 8.332031 25 C 8.332031 34.191406 15.808594 41.667969 25 41.667969 C 25.164062 41.667969 25.332031 41.664062 25.496094 41.660156 C 25.703125 43.105469 26.121094 44.484375 26.71875 45.761719 C 26.152344 45.808594 25.578125 45.832031 25 45.832031 C 13.492188 45.832031 4.167969 36.507812 4.167969 25 C 4.167969 13.492188 13.492188 4.167969 25 4.167969 C 36.507812 4.167969 45.832031 13.492188 45.832031 25 Z M 33.332031 25 L 20.832031 34.375 L 20.832031 15.625 Z M 33.332031 25 "/>
<path style=" stroke:none;fill-rule:nonzero;fill-opacity:1;" d="M 48.105469 41.167969 C 48.207031 40.652344 48.265625 40.125 48.265625 39.582031 C 48.265625 39.042969 48.207031 38.515625 48.105469 38 L 49.785156 36.753906 C 50 36.589844 50.0625 36.296875 49.929688 36.066406 L 47.980469 32.683594 C 47.84375 32.453125 47.558594 32.359375 47.3125 32.464844 L 45.363281 33.308594 C 44.574219 32.625 43.660156 32.089844 42.652344 31.742188 L 42.40625 29.632812 C 42.375 29.367188 42.152344 29.167969 41.882812 29.167969 L 37.984375 29.167969 C 37.714844 29.167969 37.488281 29.367188 37.457031 29.632812 L 37.214844 31.742188 C 36.207031 32.089844 35.292969 32.625 34.503906 33.308594 L 32.554688 32.464844 C 32.308594 32.359375 32.019531 32.453125 31.886719 32.683594 L 29.9375 36.066406 C 29.804688 36.296875 29.863281 36.589844 30.078125 36.753906 L 31.761719 38 C 31.660156 38.515625 31.597656 39.042969 31.597656 39.582031 C 31.597656 40.125 31.660156 40.652344 31.761719 41.167969 L 30.078125 42.414062 C 29.863281 42.574219 29.800781 42.871094 29.9375 43.101562 L 31.886719 46.480469 C 32.019531 46.710938 32.308594 46.804688 32.554688 46.699219 L 34.503906 45.855469 C 35.292969 46.542969 36.207031 47.074219 37.214844 47.425781 L 37.457031 49.535156 C 37.488281 49.800781 37.714844 50 37.984375 50 L 41.882812 50 C 42.152344 50 42.375 49.800781 42.40625 49.535156 L 42.652344 47.425781 C 43.660156 47.074219 44.574219 46.542969 45.363281 45.859375 L 47.3125 46.703125 C 47.558594 46.808594 47.84375 46.710938 47.980469 46.480469 L 49.929688 43.105469 C 50.0625 42.871094 50 42.574219 49.785156 42.417969 Z M 39.933594 43.75 C 37.632812 43.75 35.765625 41.882812 35.765625 39.582031 C 35.765625 37.28125 37.632812 35.417969 39.933594 35.417969 C 42.234375 35.417969 44.097656 37.28125 44.097656 39.582031 C 44.097656 41.882812 42.234375 43.75 39.933594 43.75 Z M 39.933594 43.75 "/>
</g>
</svg>
